Session 1.2: Collecting, reading and cleaning text data
…
So after the first two sessions we’re assuming we have our corpus in
a tibble, with one column being the text of the documents and other
columns of metadata – year and company for the Social Responsibility
reports, laureate and year for our Nobel Peace Prize award speeches.
First things first, there are numerous ways to try to get an overview of
the data. If you just enter the dataframe’s name in R you will get the
first few lines. Alternately, you can use print() – tibbles
are built
to make printing and viewing dataframes easier. If we want to print all
rows (you have to be careful with this, if you have millions of rows
this will probably crash R) we can do this.

nobel # note that this tells you the datatype of each column

## # A tibble: 92 × 3
##     Year Laureate                                                 AwardSpeech   
##    <dbl> <chr>                                                    <chr>         
##  1  1905 Bertha von Suttner                                       "  On behalf …
##  2  1906 Theodore Roosevelt                                       "As the Nobel…
##  3  1907 Ernesto Teodoro Moneta, Louis Renault                    "Ernesto Teod…
##  4  1908 Klas Pontus Arnoldson, Fredrik Bajer                     "On behalf of…
##  5  1909 Auguste Beernaert, Paul Henri d'Estournelles de Constant "Auguste Beer…
##  6  1910 Permanent International Peace Bureau                     "Chairman of …
##  7  1911 Tobias Asser, Alfred Fried                               "Tobias Micha…
##  8  1912 Elihu Root                                               "Elihu Root w…
##  9  1913 Henri La Fontaine                                        "Henri La Fon…
## 10  1922 Fridtjof Nansen                                          "I take pleas…
## # … with 82 more rows
## # ℹ Use `print(n = ...)` to see more rows
…
#OR

(nobel <- nobel %>%
  mutate(clean_text = str_replace_all(AwardSpeech, "\u0092", "'")) %>%
  mutate(clean_text = str_replace_all(clean_text, "(\u0093)|(\u0094)", '"')) %>%
  mutate(clean_text = str_to_lower(clean_text)) %>%
  mutate(clean_text = str_squish(clean_text)))

## # A tibble: 92 × 4
##     Year Laureate                                                Award…¹ clean…²
##    <dbl> <chr>                                                   <chr>   <chr>  
##  1  1905 Bertha von Suttner                                      "  On … "on be…
##  2  1906 Theodore Roosevelt                                      "As th… "as th…
##  3  1907 Ernesto Teodoro Moneta, Louis Renault                   "Ernes… "ernes…
##  4  1908 Klas Pontus Arnoldson, Fredrik Bajer                    "On be… "on be…
##  5  1909 Auguste Beernaert, Paul Henri d'Estournelles de Consta… "Augus… "augus…
##  6  1910 Permanent International Peace Bureau                    "Chair… "chair…
##  7  1911 Tobias Asser, Alfred Fried                              "Tobia… "tobia…
##  8  1912 Elihu Root                                              "Elihu… "elihu…
##  9  1913 Henri La Fontaine                                       "Henri… "henri…
## 10  1922 Fridtjof Nansen                                         "I tak… "i tak…
## # … with 82 more rows, and abbreviated variable names ¹​AwardSpeech, ²​clean_text
## # ℹ Use `print(n = ...)` to see more rows
…
At this point there is actually a fair amount we can do with our
corpus as a dataframe and text corpus in one column. To help us
manipulate dataframes, let’s take a quick look at the tidyverse’s system
of manipulation by common-sense verbs.

With nobel we have a dataframe of speeches from 1905 to
2019 (with some holes where there was no prize given out). How do we
subset this dataframe so we have only speeches from 1950-1980? Use
filter.

nobel %>%
  filter(Year >= 1950 & Year <= 1980)

## # A tibble: 26 × 3
##     Year Laureate                                                    AwardSpeech
##    <dbl> <chr>                                                       <chr>      
##  1  1950 Ralph Bunche                                                "dr. ralph…
##  2  1951 Léon Jouhaux                                                "alfred no…
##  3  1952 Albert Schweitzer                                           "albert sc…
##  4  1953 George C. Marshall                                          "when cade…
##  5  1954 Office of the United Nations High Commissioner for Refugees "the nobel…
##  6  1957 Lester Bowles Pearson                                       "the nobel…
##  7  1958 Georges Pire                                                "the nobel…
##  8  1959 Philip Noel-Baker                                           "frequentl…
##  9  1960 Albert Lutuli                                               "this year…
## 10  1961 Dag Hammarskjöld                                            "the nobel…
## # … with 16 more rows
## # ℹ Use `print(n = ...)` to see more rows
…
nobel %>%
  filter(Year == 1950 | Year == 1980) # returns rows for 1950 and 1980
nobel %>%
  filter(Year >= 1950 & Year <= 1954 & Year != 1953) # returns rows >= 1950, <=1954 and not 1953

mutate adds new columns. Say we’d like a column telling
us whether the year was before WWII or after.

nobel %>%
  mutate(after_WWII = Year > 1945)

## # A tibble: 92 × 4
##     Year Laureate                                                Award…¹ after…²
##    <dbl> <chr>                                                   <chr>   <lgl>  
##  1  1905 Bertha von Suttner                                      "on be… FALSE  
##  2  1906 Theodore Roosevelt                                      "as th… FALSE  
##  3  1907 Ernesto Teodoro Moneta, Louis Renault                   "ernes… FALSE  
##  4  1908 Klas Pontus Arnoldson, Fredrik Bajer                    "on be… FALSE  
##  5  1909 Auguste Beernaert, Paul Henri d'Estournelles de Consta… "augus… FALSE  
##  6  1910 Permanent International Peace Bureau                    "chair… FALSE  
##  7  1911 Tobias Asser, Alfred Fried                              "tobia… FALSE  
##  8  1912 Elihu Root                                              "elihu… FALSE  
##  9  1913 Henri La Fontaine                                       "henri… FALSE  
## 10  1922 Fridtjof Nansen                                         "i tak… FALSE  
## # … with 82 more rows, and abbreviated variable names ¹​AwardSpeech, ²​after_WWII
## # ℹ Use `print(n = ...)` to see more rows
…
