Session 2.2: Word frequencies and dictionary methods
…
We convert character strings that we have been working with into tidy
text with the unnest_rows() function in the
tidytext package, which splits texts up by tokens (a
process appropriately called “tokenization”).

# Lets use the first speech in our Nobel corpus as an example
library(tidytext)
library(tidyverse)
nobel <- read_rds("data/nobel_cleaned.Rds")
ex <- nobel[1,]
ex %>%
  unnest_tokens(output = words, input = AwardSpeech)

## # A tibble: 598 × 3
##     Year Laureate           words       
##    <dbl> <chr>              <chr>       
##  1  1905 Bertha von Suttner on          
##  2  1905 Bertha von Suttner behalf      
##  3  1905 Bertha von Suttner of          
##  4  1905 Bertha von Suttner the         
##  5  1905 Bertha von Suttner nobel       
##  6  1905 Bertha von Suttner committee   
##  7  1905 Bertha von Suttner bjørnstjerne
##  8  1905 Bertha von Suttner bjørnson    
##  9  1905 Bertha von Suttner introduced  
## 10  1905 Bertha von Suttner the         
## # … with 588 more rows
## # ℹ Use `print(n = ...)` to see more rows
…
Another way in which texts are frequently pre-processed for analysis
and we can now look at is to remove so-called stop words. Stop words are
words with grammatical rather than syntactic function - they make things
we say grammatical but don’t add (much) meaning. Examples include “a”,
“the”, “of” and so on. What counts as a stopword might vary on our
corpus! And what sort of analysis we’re trying to do.3 All major text
analysis packages have means for removing stop words. In ‘’tidytext’’ we
have a list of stopwords called stop_words from a couple of
different corpora (?stop_words for more info and
links).

stop_words

## # A tibble: 1,149 × 2
##    word        lexicon
##    <chr>       <chr>  
##  1 a           SMART  
##  2 a's         SMART  
##  3 able        SMART  
##  4 about       SMART  
##  5 above       SMART  
##  6 according   SMART  
##  7 accordingly SMART  
##  8 across      SMART  
##  9 actually    SMART  
## 10 after       SMART  
## # … with 1,139 more rows
## # ℹ Use `print(n = ...)` to see more rows
…
To see it in action we’ll first test it against a short test set of
words and then apply to our whole corpus.

library(SnowballC)
words_to_stem <- c("going", "represented", "wars", "similarity", "books")
SnowballC::wordStem(words_to_stem)

## [1] "go"      "repres"  "war"     "similar" "book"

Stemming in action. So now applied to the entire document:

(nobel_tidy_stemmed <- nobel_tidy %>%
  mutate(word_stem = wordStem(words)))

## # A tibble: 94,107 × 4
##     Year Laureate           words        word_stem  
##    <dbl> <chr>              <chr>        <chr>      
##  1  1905 Bertha von Suttner behalf       behalf     
##  2  1905 Bertha von Suttner nobel        nobel      
##  3  1905 Bertha von Suttner committee    committe   
##  4  1905 Bertha von Suttner bjørnstjerne bjørnstjern
##  5  1905 Bertha von Suttner bjørnson     bjørnson   
##  6  1905 Bertha von Suttner introduced   introduc   
##  7  1905 Bertha von Suttner speaker      speaker    
##  8  1905 Bertha von Suttner baroness     baro       
##  9  1905 Bertha von Suttner bertha       bertha     
## 10  1905 Bertha von Suttner von          von        
## # … with 94,097 more rows
## # ℹ Use `print(n = ...)` to see more rows

write_rds(nobel_tidy_stemmed, "data/nobel_stemmed.Rds")

4 Top word frequencies4

Now we can find the most frequently appearing words in the
corpus.

nobel_tidy %>%
  count(words, sort=TRUE)

## # A tibble: 12,329 × 2
##    words             n
##    <chr>         <int>
##  1 peace          1595
##  2 war             927
##  3 world           847
##  4 prize           646
##  5 nations         642
##  6 nobel           597
##  7 international   530
##  8 people          513
##  9 time            441
## 10 human           440
## # … with 12,319 more rows
## # ℹ Use `print(n = ...)` to see more rows

Remember we got this nice and informative result only because we
already removed the stopwords. OTherwise we would have been swamped with
“the”, “and”, and so on.

Our knowledge of how to subset tibbles will now come in pretty handy.
If we want to get the most frequent words, say, before 1945 we easily do
this.

nobel_tidy %>%
  filter(Year < 1945) %>%
  count(words, sort=TRUE)

## # A tibble: 4,801 × 2
##    words             n
##    <chr>         <int>
##  1 peace           346
##  2 war             301
##  3 nations         193
##  4 international   157
##  5 league          145
##  6 world           110
##  7 time             81
##  8 american         72
##  9 prize            72
## 10 europe           69
## # … with 4,791 more rows
## # ℹ Use `print(n = ...)` to see more rows
…
We can then use bind_tf_idf() from tidytext. (Tidytext
implements tf-idf using proportional, but not logged, tf – we’ll see
some of these other versions in other packages). The function takes a
first argument (other than the tidy dataframe) that is the word, a
second that is the document, and third a column containing document-term
counts).

tf_idf <- nobel_words %>%
  bind_tf_idf(words, Period, n)
tf_idf

## # A tibble: 17,036 × 6
##    words Period        n     tf   idf tf_idf
##    <chr> <chr>     <int>  <dbl> <dbl>  <dbl>
##  1 the   Post-WWII 13947 0.0742     0      0
##  2 of    Post-WWII  7281 0.0387     0      0
##  3 in    Post-WWII  5614 0.0299     0      0
##  4 to    Post-WWII  5591 0.0297     0      0
##  5 and   Post-WWII  5417 0.0288     0      0
##  6 a     Post-WWII  3712 0.0197     0      0
##  7 the   Pre-WWII   3526 0.0761     0      0
##  8 that  Post-WWII  2543 0.0135     0      0
##  9 is    Post-WWII  2329 0.0124     0      0
## 10 of    Pre-WWII   2191 0.0473     0      0
## # … with 17,026 more rows
## # ℹ Use `print(n = ...)` to see more rows

Here we see that tf-idf has zeroed out these extremely common and not
very interesting terms, precisely what we’d hope an indicator like this
would do. Lets see the highest tf-idf scores.

tf_idf %>% arrange(desc(tf_idf)) 

## # A tibble: 17,036 × 6
##    words    Period        n       tf   idf   tf_idf
##    <chr>    <chr>     <int>    <dbl> <dbl>    <dbl>
##  1 nuclear  Post-WWII   278 0.00148  0.693 0.00102 
##  2 saavedra Pre-WWII     22 0.000475 0.693 0.000329
##  3 locarno  Pre-WWII     20 0.000432 0.693 0.000299
##  4 angell   Pre-WWII     19 0.000410 0.693 0.000284
##  5 pan      Pre-WWII     19 0.000410 0.693 0.000284
##  6 ladies   Post-WWII    71 0.000378 0.693 0.000262
##  7 global   Post-WWII    60 0.000319 0.693 0.000221
##  8 non      Post-WWII    54 0.000287 0.693 0.000199
##  9 poverty  Post-WWII    52 0.000277 0.693 0.000192
## 10 persons  Post-WWII    51 0.000271 0.693 0.000188
## # … with 17,026 more rows
## # ℹ Use `print(n = ...)` to see more rows
…
tidytext includes three dictionaries, each working
slightly differently.6 Let’s take a look below.

library(tidytext)
# the first time you will need to say yes to download of the sentiment dictionary
get_sentiments("afinn")

## # A tibble: 2,477 × 2
##    word       value
##    <chr>      <dbl>
##  1 abandon       -2
##  2 abandoned     -2
##  3 abandons      -2
##  4 abducted      -2
##  5 abduction     -2
##  6 abductions    -2
##  7 abhor         -3
##  8 abhorred      -3
##  9 abhorrent     -3
## 10 abhors        -3
## # … with 2,467 more rows
## # ℹ Use `print(n = ...)` to see more rows
…
## 
##  -5  -4  -3  -2  -1   0   1   2   3   4   5 
##  16  43 264 966 309   1 208 448 172  45   5

summary(get_sentiments("afinn")$value) # summary statistics for the value column 

##    Min. 1st Qu.  Median    Mean 3rd Qu.    Max. 
## -5.0000 -2.0000 -2.0000 -0.5894  2.0000  5.0000

So we see the value of sentiments goes from -5 to 5. Calling the
other two:

get_sentiments("bing")

## # A tibble: 6,786 × 2
##    word        sentiment
##    <chr>       <chr>    
##  1 2-faces     negative 
##  2 abnormal    negative 
##  3 abolish     negative 
##  4 abominable  negative 
##  5 abominably  negative 
##  6 abominate   negative 
##  7 abomination negative 
##  8 abort       negative 
##  9 aborted     negative 
## 10 aborts      negative 
## # … with 6,776 more rows
## # ℹ Use `print(n = ...)` to see more rows

get_sentiments("nrc")

## # A tibble: 13,872 × 2
##    word        sentiment
##    <chr>       <chr>    
##  1 abacus      trust    
##  2 abandon     fear     
##  3 abandon     negative 
##  4 abandon     sadness  
##  5 abandoned   anger    
##  6 abandoned   fear     
##  7 abandoned   negative 
##  8 abandoned   sadness  
##  9 abandonment anger    
## 10 abandonment fear     
## # … with 13,862 more rows
## # ℹ Use `print(n = ...)` to see more rows
…
In Google’s famous n-grams viewer, you can search not just for a
single word but for phrases, sets of words “n” tokens long. Indeed, this
is why it is called an “n”-gram, they are consecutive sequences of an
arbitrary number of words. So far we’ve only been looking at individual
words, so lets think about multi-word units.

True to form, the tidyverse will help out with this, allowing us to
unnest_tokens() by the n-gram by telling R that our token
of interest is now not the single word but an ngram of n length.

nobel %>%
  unnest_tokens(twogram, AwardSpeech, token = "ngrams", n = 2)

## # A tibble: 234,267 × 3
##     Year Laureate           twogram               
##    <dbl> <chr>              <chr>                 
##  1  1905 Bertha von Suttner on behalf             
##  2  1905 Bertha von Suttner behalf of             
##  3  1905 Bertha von Suttner of the                
##  4  1905 Bertha von Suttner the nobel             
##  5  1905 Bertha von Suttner nobel committee       
##  6  1905 Bertha von Suttner committee bjørnstjerne
##  7  1905 Bertha von Suttner bjørnstjerne bjørnson 
##  8  1905 Bertha von Suttner bjørnson introduced   
##  9  1905 Bertha von Suttner introduced the        
## 10  1905 Bertha von Suttner the speaker           
## # … with 234,257 more rows
## # ℹ Use `print(n = ...)` to see more rows

And we could then make a plot of the most frequently occurring
2-grams. The problem with this is that we’re going to be overrun with
stopwords, but now that we have bigrams how to do take the individual
stop words? We could search and remove with str_remove_all
without unnesting words, we could unnest, take out the stop words,
renest and then unnest by 2-grams, but we could also use a more tidy
approach and separate() which is another handy command for
manipulating tidyverse dataframes.

nobel %>%
  unnest_tokens(twogram, AwardSpeech, token = "ngrams", n = 2) %>%
  separate(twogram, into=c("word1", "word2"), sep = " ")  # here the call states what col to separate, into which columns, and where the separation should be made, here when there is a space between the words

## # A tibble: 234,267 × 4
##     Year Laureate           word1        word2       
##    <dbl> <chr>              <chr>        <chr>       
##  1  1905 Bertha von Suttner on           behalf      
##  2  1905 Bertha von Suttner behalf       of          
##  3  1905 Bertha von Suttner of           the         
##  4  1905 Bertha von Suttner the          nobel       
##  5  1905 Bertha von Suttner nobel        committee   
##  6  1905 Bertha von Suttner committee    bjørnstjerne
##  7  1905 Bertha von Suttner bjørnstjerne bjørnson    
##  8  1905 Bertha von Suttner bjørnson     introduced  
##  9  1905 Bertha von Suttner introduced   the         
## 10  1905 Bertha von Suttner the          speaker     
## # … with 234,257 more rows
## # ℹ Use `print(n = ...)` to see more rows
…
For instance, we can use the pairwise_count() function
to find all the words that appear together in the same Nobel speech (not
necessarily right next to each other).

library(widyr)
nobel %>%
  unnest_tokens(word, AwardSpeech) %>%
  filter(!word %in% stop_words$word) %>%
  pairwise_count(word, Year, sort = TRUE)

## # A tibble: 22,374,876 × 3
##    item1 item2     n
##    <chr> <chr> <dbl>
##  1 time  peace    89
##  2 peace time     89
##  3 prize peace    86
##  4 peace prize    86
##  5 peace nobel    85
##  6 nobel peace    85
##  7 war   peace    85
##  8 world peace    85
##  9 peace war      85
## 10 peace world    85
## # … with 22,374,866 more rows
## # ℹ Use `print(n = ...)` to see more rows
…
