Session 3.2: Topic modeling
…
Let’s turn to the matrix of probabilities of topics over documents.
To keep us on our toes topicmodels calls this not theta but
gamma (\(\gamma\)).

topics_in_documents <- tidy(nobel_tm, matrix = "gamma")
topics_in_documents

## # A tibble: 1,410 × 3
##    document topic      gamma
##    <chr>    <int>      <dbl>
##  1 1981         1 0.00000702
##  2 2017         1 0.00000999
##  3 1954         1 0.0000101 
##  4 1925         1 0.00000764
##  5 1926         1 0.00000764
##  6 1968         1 1.00      
##  7 2013         1 0.0000143 
##  8 1988         1 0.0000121 
##  9 1953         1 0.00000627
## 10 2016         1 0.0000123 
## # … with 1,400 more rows
## # ℹ Use `print(n = ...)` to see more rows
…
(topics <- topics_in_documents %>%
  left_join(auto_topics, by=c("topic" = "old_topic")))

## # A tibble: 1,410 × 4
##    document topic      gamma new_topic         
##    <chr>    <int>      <dbl> <chr>             
##  1 1981         1 0.00000702 peac-countri-right
##  2 2017         1 0.00000999 peac-countri-right
##  3 1954         1 0.0000101  peac-countri-right
##  4 1925         1 0.00000764 peac-countri-right
##  5 1926         1 0.00000764 peac-countri-right
##  6 1968         1 1.00       peac-countri-right
##  7 2013         1 0.0000143  peac-countri-right
##  8 1988         1 0.0000121  peac-countri-right
##  9 1953         1 0.00000627 peac-countri-right
## 10 2016         1 0.0000123  peac-countri-right
## # … with 1,400 more rows
## # ℹ Use `print(n = ...)` to see more rows
…
